[
  {
    "@type": "Indicator",
    "term": {
      "@type": "Term",
      "@id": "landTransformationFromTemporaryCropland20YearAverageDuringCycle"
    },
    "methodModel": {
      "@type": "Term",
      "@id": "faostat2018"
    },
    "value": 0.01563160930590271
  },
  {
    "@type": "Indicator",
    "term": {
      "@type": "Term",
      "@id": "landTransformationFromPermanentCropland20YearAverageDuringCycle"
    },
    "methodModel": {
      "@type": "Term",
      "@id": "faostat2018"
    },
    "value": 0.004368390694097289
  }
]
