[
  {
    "@type": "Practice",
    "term": {
      "@type": "Term",
      "@id": "plantationLifespan"
    },
    "value": [
      10950
    ],
    "model": {
      "@type": "Term",
      "@id": "pooreNemecek2018"
    }
  }
]
