{
  "@type": "Indicator",
  "term": {
    "@type": "Term",
    "@id": "damageToHumanHealthClimateChange"
  },
  "methodModel": {
    "@type": "Term",
    "@id": "lcImpactAllEffects100Years"
  },
  "value": 7.189474074845929e-7
}
