[
  {
    "term": {
      "@id": "so2ToAirFuelCombustion",
      "@type": "Term"
    },
    "value": [
      0
    ],
    "methodTier": "tier 1",
    "@type": "Emission",
    "methodModel": {
      "@type": "Term",
      "@id": "emepEea2019"
    }
  }
]
