{
  "id": "fake-cycle",
  "type": "Cycle",
  "functionalUnit": "1 ha",
  "dataPrivate": false,
  "startDate": "2011",
  "startDateDefinition": "sowing date",
  "endDate": "2012",
  "defaultSource": {
    "id": "fake-source",
    "type": "Source"
  },
  "site": {
    "id": "fake-site",
    "type": "Site"
  },
  "products": [
    {
      "@type": "Product",
      "term": {
        "@type": "Term",
        "@id": "agatiFreshForage",
        "termType": "forage"
      },
      "value": [
        1000
      ],
      "properties": [
        {
          "@type": "Property",
          "term": {
            "@type": "Term",
            "@id": "dryMatter",
            "units": "%"
          },
          "value": 17.3
        }
      ]
    }
  ],
  "name": "Hazelnut, in shell - Rudsar, Iran - 2012",
  "completeness": {
    "fertiliser": true,
    "soilAmendments": false,
    "pesticidesAntibiotics": true,
    "water": false,
    "electricityFuel": true,
    "products": true,
    "cropResidue": false,
    "animalFeed": false,
    "material": false,
    "other": false,
    "@type": "Completeness",
    "transport": false,
    "excreta": true,
    "waste": true,
    "liveAnimals": true,
    "operations": true
  },
  "defaultMethodClassification": "modelled",
  "defaultMethodClassificationDescription": "description"
}
