[
  {
    "@type": "Input",
    "term": {
      "@type": "Term",
      "@id": "surinameGrassFreshForage"
    },
    "value": [
      18888.048416663736
    ],
    "model": {
      "@type": "Term",
      "@id": "ipcc2019"
    }
  },
  {
    "@type": "Input",
    "term": {
      "@type": "Term",
      "@id": "alangAlangFreshForage"
    },
    "value": [
      12592.032277775827
    ],
    "model": {
      "@type": "Term",
      "@id": "ipcc2019"
    }
  }
]
