{
  "id": "fake-cycle",
  "type": "Cycle",
  "site": {
    "id": "fake-site",
    "type": "Site"
  },
  "name": "fake cycle",
  "functionalUnit": "1 ha",
  "defaultSource": {
    "id": "fake-source",
    "type": "Source"
  },
  "dataPrivate": false,
  "endDate": "2009",
  "cycleDuration": 365,
  "inputs": [
    {
      "term": {
        "@type": "Term",
        "name": "Methyl chloride",
        "termType": "pesticideAI",
        "@id": "CAS-74-87-3",
        "units": "kg active ingredient"
      },
      "value": [
        0.5
      ],
      "@type": "Input"
    }
  ],
  "products": [
    {
      "term": {
        "@type": "Term",
        "name": "Cereals, grain",
        "termType": "crop",
        "@id": "cerealGrain",
        "units": "kg"
      },
      "description": "Wheat, grain; Barley, grain",
      "value": [
        2900
      ],
      "economicValueShare": 100,
      "primary": true,
      "@type": "Product"
    }
  ],
  "completeness": {
    "@type": "Completeness",
    "electricityFuel": true,
    "material": true,
    "fertiliser": true,
    "other": true,
    "pesticidesAntibiotics": true,
    "soilAmendments": true,
    "water": true,
    "products": true,
    "cropResidue": true,
    "animalFeed": true,
    "transport": false,
    "excreta": true,
    "waste": true,
    "liveAnimals": true,
    "operations": true
  },
  "defaultMethodClassification": "modelled",
  "defaultMethodClassificationDescription": "description"
}
