{
  "id": "fake-cycle",
  "type": "Cycle",
  "name": "fake cycle",
  "dataPrivate": true,
  "functionalUnit": "1 ha",
  "endDate": "2012-01-01",
  "cycleDuration": 365,
  "site": {
    "id": "fake-site",
    "type": "Site"
  },
  "inputs": [
    {
      "@type": "Input",
      "term": {
        "@id": "npBlendKgN",
        "@type": "Term",
        "termType": "inorganicFertiliser",
        "units": "kg N"
      },
      "value": [
        100
      ]
    },
    {
      "@type": "Input",
      "term": {
        "@id": "potassiumMetaphosphateKgP2O5",
        "@type": "Term",
        "termType": "inorganicFertiliser",
        "units": "kg P2O5"
      },
      "value": [
        100
      ]
    },
    {
      "@type": "Input",
      "term": {
        "@id": "diammoniumPhosphateKgN",
        "@type": "Term",
        "termType": "inorganicFertiliser",
        "units": "kg N"
      },
      "value": [
        100
      ]
    },
    {
      "@type": "Input",
      "term": {
        "@id": "nitricPhosphateKgN",
        "@type": "Term",
        "termType": "inorganicFertiliser",
        "units": "kg N"
      },
      "value": [
        100
      ]
    }
  ],
  "completeness": {
    "@type": "Completeness",
    "electricityFuel": true,
    "material": true,
    "fertiliser": true,
    "other": true,
    "pesticidesAntibiotics": true,
    "soilAmendments": true,
    "water": true,
    "products": true,
    "cropResidue": true,
    "animalFeed": true,
    "transport": false,
    "excreta": true,
    "waste": true,
    "liveAnimals": true,
    "operations": true
  },
  "defaultMethodClassification": "modelled",
  "defaultMethodClassificationDescription": "description"
}
