{
  "id": "fake-cycle",
  "type": "Cycle",
  "name": "fake cycle",
  "functionalUnit": "1 ha",
  "defaultSource": {
    "id": "fake-source",
    "type": "Source"
  },
  "dataPrivate": false,
  "endDate": "2009",
  "cycleDuration": 365,
  "site": {
    "id": "fake-site",
    "type": "Site",
    "siteType": "cropland",
    "measurements": [
      {
        "@type": "Measurement",
        "term": {
          "@id": "temperatureAnnual",
          "@type": "Term"
        },
        "value": [
          24.533333
        ],
        "methodClassification": "unsourced assumption"
      },
      {
        "@type": "Measurement",
        "term": {
          "@id": "soilPh",
          "@type": "Term"
        },
        "value": [
          5.7
        ],
        "methodClassification": "unsourced assumption"
      }
    ]
  },
  "inputs": [
    {
      "term": {
        "@id": "ureaKgN",
        "@type": "Term",
        "name": "Urea (kg N)",
        "units": "kg N",
        "termType": "inorganicFertiliser"
      },
      "value": [
        50,
        25,
        25
      ],
      "@type": "Input"
    }
  ],
  "completeness": {
    "@type": "Completeness",
    "electricityFuel": true,
    "material": true,
    "fertiliser": true,
    "other": true,
    "pesticidesAntibiotics": true,
    "soilAmendments": true,
    "water": true,
    "products": true,
    "cropResidue": true,
    "animalFeed": true,
    "transport": false,
    "excreta": true,
    "waste": true,
    "liveAnimals": true,
    "operations": true
  },
  "defaultMethodClassification": "modelled",
  "defaultMethodClassificationDescription": "description"
}
