{
  "@type": "Indicator",
  "term": {
    "@id": "damageToHumanHealth",
    "@type": "Term"
  },
  "methodModel": {
    "@id": "recipe2016Individualist",
    "@type": "Term"
  },
  "value": 0.00011912
}
