[
  {
    "term": {
      "@id": "nErosionSoilFlux",
      "@type": "Term"
    },
    "value": [
      168.28514489693865
    ],
    "methodTier": "tier 1",
    "@type": "Emission",
    "methodModel": {
      "@type": "Term",
      "@id": "schererPfister2015"
    }
  }
]
