{
  "id": "fake-cycle",
  "type": "Cycle",
  "name": "fake cycle",
  "functionalUnit": "1 ha",
  "defaultSource": {
    "id": "fake-source",
    "type": "Source"
  },
  "dataPrivate": false,
  "endDate": "2009",
  "cycleDuration": 365,
  "site": {
    "id": "fake-site",
    "type": "Site",
    "siteType": "lake",
    "measurements": [
      {
        "@type": "Measurement",
        "term": {
          "@id": "slowFlowingWater",
          "@type": "Term",
          "name": "Slow flowing water",
          "termType": "measurement"
        },
        "methodClassification": "unsourced assumption"
      }
    ]
  },
  "practices": [
    {
      "term": {
        "@id": "excretionIntoWaterBody",
        "name": "Excretion into water body",
        "@type": "Term",
        "termType": "excretaManagement"
      },
      "@type": "Practice"
    },
    {
      "@type": "Practice",
      "term": {
        "@id": "yieldOfPrimaryAquacultureProductLiveweightPerM2",
        "name": "Yield of primary aquaculture product (liveweight per m2)",
        "@type": "Term",
        "termType": "aquacultureManagement"
      },
      "value": [
        30.864
      ]
    }
  ],
  "inputs": [
    {
      "term": {
        "@type": "Term",
        "name": "Excreta (kg N)",
        "termType": "excreta",
        "@id": "excretaKgN",
        "units": "kg N"
      },
      "value": [
        0.0661
      ],
      "@type": "Input",
      "properties": [
        {
          "@type": "Property",
          "term": {
            "@type": "Term",
            "@id": "totalAmmoniacalNitrogenContentAsN",
            "units": "%"
          },
          "value": 62.874432677761
        }
      ]
    }
  ],
  "completeness": {
    "@type": "Completeness",
    "electricityFuel": true,
    "material": true,
    "fertiliser": true,
    "other": true,
    "pesticidesAntibiotics": true,
    "soilAmendments": true,
    "water": true,
    "products": true,
    "cropResidue": true,
    "animalFeed": true,
    "transport": false,
    "excreta": true,
    "waste": true,
    "liveAnimals": true,
    "operations": true
  },
  "defaultMethodClassification": "modelled",
  "defaultMethodClassificationDescription": "description"
}
