{
  "@type": "Indicator",
  "term": {
    "@id": "damageToTerrestrialEcosystemsPdfYear",
    "@type": "Term"
  },
  "methodModel": {
    "@id": "lcImpactAllEffects100Years",
    "@type": "Term"
  },
  "value": 1
}
