{
  "id": "fake-cycle",
  "type": "Cycle",
  "site": {
    "id": "fake-site",
    "type": "Site"
  },
  "defaultSource": {
    "id": "fake-source",
    "type": "Source"
  },
  "functionalUnit": "relative",
  "endDate": "2014",
  "cycleDuration": 365,
  "dataPrivate": false,
  "inputs": [
    {
      "term": {
        "@type": "Term",
        "name": "Ionophores",
        "termType": "other",
        "@id": "ionophores",
        "units": "kg"
      },
      "value": [
        0.2
      ],
      "isAnimalFeed": true,
      "@type": "Input"
    },
    {
      "term": {
        "@type": "Term",
        "name": "Maize, steam flaked",
        "termType": "crop",
        "@id": "maizeSteamFlaked",
        "units": "kg"
      },
      "value": [
        10
      ],
      "isAnimalFeed": true,
      "@type": "Input"
    },
    {
      "term": {
        "@type": "Term",
        "name": "Wheat, grain",
        "termType": "crop",
        "@id": "wheatGrain",
        "units": "kg"
      },
      "value": [
        0.33
      ],
      "isAnimalFeed": true,
      "@type": "Input"
    },
    {
      "term": {
        "@type": "Term",
        "name": "Barley, grain",
        "termType": "crop",
        "@id": "barleyGrainInHusk",
        "units": "kg"
      },
      "value": [
        0.33
      ],
      "isAnimalFeed": true,
      "@type": "Input"
    },
    {
      "term": {
        "@type": "Term",
        "name": "Soybean, grain",
        "termType": "crop",
        "@id": "soybeanSeedWhole",
        "units": "kg"
      },
      "value": [
        0.33
      ],
      "isAnimalFeed": true,
      "@type": "Input"
    },
    {
      "term": {
        "@type": "Term",
        "name": "Diesel",
        "termType": "fuel",
        "@id": "diesel",
        "units": "kg"
      },
      "value": [
        0.004315
      ],
      "@type": "Input"
    },
    {
      "term": {
        "@type": "Term",
        "name": "Electricity, grid, market mix",
        "termType": "electricity",
        "@id": "electricityGridMarketMix",
        "units": "kWh"
      },
      "value": [
        0.25
      ],
      "@type": "Input"
    },
    {
      "term": {
        "@type": "Term",
        "name": "Electricity, grid, natural gas",
        "termType": "electricity",
        "@id": "electricityGridNaturalGas",
        "units": "kWh"
      },
      "value": [
        1.55
      ],
      "@type": "Input"
    }
  ],
  "products": [
    {
      "term": {
        "@type": "Term",
        "name": "Beef cattle",
        "termType": "liveAnimal",
        "@id": "beefCattle",
        "units": "number"
      },
      "value": [
        1
      ],
      "primary": true,
      "@type": "Product"
    },
    {
      "term": {
        "@type": "Term",
        "termType": "excreta",
        "@id": "excretaKgN",
        "units": "kg N"
      },
      "@type": "Product"
    }
  ],
  "completeness": {
    "electricityFuel": true,
    "material": true,
    "fertiliser": false,
    "other": false,
    "pesticidesAntibiotics": false,
    "soilAmendments": false,
    "water": false,
    "products": true,
    "cropResidue": false,
    "animalFeed": true,
    "@type": "Completeness",
    "transport": false,
    "excreta": true,
    "waste": true,
    "liveAnimals": true,
    "operations": true
  },
  "defaultMethodClassification": "modelled",
  "defaultMethodClassificationDescription": "description"
}
