{
  "@type": "Indicator",
  "term": {
    "@type": "Term",
    "@id": "damageToHumanHealthHumanToxicityCancerogenic"
  },
  "methodModel": {
    "@type": "Term",
    "@id": "lcImpactAllEffectsInfinite"
  },
  "value": 1.2113328110055814e-8
}
