{
  "@type": "Indicator",
  "term": {
    "@type": "Term",
    "@id": "terrestrialAcidificationPotential"
  },
  "methodModel": {
    "@type": "Term",
    "@id": "recipe2016Egalitarian"
  },
  "value": 0.017818051009243382
}
